^C:\USERS\NFORCHI\DESKTOP\TRABAJOPRACTICO_01\TRABAJOPRACTICO_01\COLLIDER.CPP
/c /I"C:\USERS\NFORCHI\DOCUMENTS\VISUAL STUDIO 2015\PROJECTS\TRABAJOPRACTICO_01\SFML\INCLUDE" /Zi /nologo /W3 /WX- /sdl /O2 /Oi /Oy- /GL /D WIN32 /D NDEBUG /D _CONSOLE /D _UNICODE /D UNICODE /Gm- /EHsc /MD /GS /Gy /fp:precise /Zc:wchar_t /Zc:forScope /Zc:inline /Fo"RELEASE\\" /Fd"RELEASE\VC140.PDB" /Gd /TP /analyze- C:\USERS\NFORCHI\DESKTOP\TRABAJOPRACTICO_01\TRABAJOPRACTICO_01\COLLIDER.CPP
^C:\USERS\NFORCHI\DESKTOP\TRABAJOPRACTICO_01\TRABAJOPRACTICO_01\PLATAFORM.CPP
/c /I"C:\USERS\NFORCHI\DOCUMENTS\VISUAL STUDIO 2015\PROJECTS\TRABAJOPRACTICO_01\SFML\INCLUDE" /Zi /nologo /W3 /WX- /sdl /O2 /Oi /Oy- /GL /D WIN32 /D NDEBUG /D _CONSOLE /D _UNICODE /D UNICODE /Gm- /EHsc /MD /GS /Gy /fp:precise /Zc:wchar_t /Zc:forScope /Zc:inline /Fo"RELEASE\\" /Fd"RELEASE\VC140.PDB" /Gd /TP /analyze- C:\USERS\NFORCHI\DESKTOP\TRABAJOPRACTICO_01\TRABAJOPRACTICO_01\PLATAFORM.CPP
^C:\USERS\NFORCHI\DESKTOP\TRABAJOPRACTICO_01\TRABAJOPRACTICO_01\MAIN.CPP
/c /I"C:\USERS\NFORCHI\DOCUMENTS\VISUAL STUDIO 2015\PROJECTS\TRABAJOPRACTICO_01\SFML\INCLUDE" /Zi /nologo /W3 /WX- /sdl /O2 /Oi /Oy- /GL /D WIN32 /D NDEBUG /D _CONSOLE /D _UNICODE /D UNICODE /Gm- /EHsc /MD /GS /Gy /fp:precise /Zc:wchar_t /Zc:forScope /Zc:inline /Fo"RELEASE\\" /Fd"RELEASE\VC140.PDB" /Gd /TP /analyze- C:\USERS\NFORCHI\DESKTOP\TRABAJOPRACTICO_01\TRABAJOPRACTICO_01\MAIN.CPP
^C:\USERS\ADMINISTRADOR\DESKTOP\ENGINESFML\TRABAJOPRACTICO_01\TRABAJOPRACTICO_01\COLLIDER.CPP
/c /IC:\USERS\ADMINISTRADOR\DESKTOP\ENGINESFML\TRABAJOPRACTICO_01\SFML_X32\INCLUDE /Zi /nologo /W3 /WX- /sdl /O2 /Oi /Oy- /GL /D WIN32 /D NDEBUG /D _CONSOLE /D _UNICODE /D UNICODE /Gm- /EHsc /MD /GS /Gy /fp:precise /Zc:wchar_t /Zc:forScope /Zc:inline /Fo"RELEASE\\" /Fd"RELEASE\VC140.PDB" /Gd /TP /analyze- C:\USERS\ADMINISTRADOR\DESKTOP\ENGINESFML\TRABAJOPRACTICO_01\TRABAJOPRACTICO_01\COLLIDER.CPP
^C:\USERS\ADMINISTRADOR\DESKTOP\ENGINESFML\TRABAJOPRACTICO_01\TRABAJOPRACTICO_01\MAIN.CPP
/c /IC:\USERS\ADMINISTRADOR\DESKTOP\ENGINESFML\TRABAJOPRACTICO_01\SFML_X32\INCLUDE /Zi /nologo /W3 /WX- /sdl /O2 /Oi /Oy- /GL /D WIN32 /D NDEBUG /D _CONSOLE /D _UNICODE /D UNICODE /Gm- /EHsc /MD /GS /Gy /fp:precise /Zc:wchar_t /Zc:forScope /Zc:inline /Fo"RELEASE\\" /Fd"RELEASE\VC140.PDB" /Gd /TP /analyze- C:\USERS\ADMINISTRADOR\DESKTOP\ENGINESFML\TRABAJOPRACTICO_01\TRABAJOPRACTICO_01\MAIN.CPP
^C:\USERS\ADMINISTRADOR\DESKTOP\ENGINESFML\TRABAJOPRACTICO_01\TRABAJOPRACTICO_01\PLATAFORM.CPP
/c /IC:\USERS\ADMINISTRADOR\DESKTOP\ENGINESFML\TRABAJOPRACTICO_01\SFML_X32\INCLUDE /Zi /nologo /W3 /WX- /sdl /O2 /Oi /Oy- /GL /D WIN32 /D NDEBUG /D _CONSOLE /D _UNICODE /D UNICODE /Gm- /EHsc /MD /GS /Gy /fp:precise /Zc:wchar_t /Zc:forScope /Zc:inline /Fo"RELEASE\\" /Fd"RELEASE\VC140.PDB" /Gd /TP /analyze- C:\USERS\ADMINISTRADOR\DESKTOP\ENGINESFML\TRABAJOPRACTICO_01\TRABAJOPRACTICO_01\PLATAFORM.CPP
